digraph foldRight {

/*
	val l: List[Int] = List(1,2,3,4)
	l.foldRight(0){(x: Int, y: Int) => println(x, y); x + y}
*/

	node[shape = "circle"]

	list1[shape = "record", label = "<a>1|<b>2|<c>3|<d>4"]
	res1[label = "7"]
	res2[label = "9"]
	res3[label = "10"]

	list1:d -> res1
	list1:c -> res1

	res1 -> res2
	list1:b -> res2

	res2 -> res3
	list1:a -> res3
}
